{
  "apps": [
    {
      "name": "backend_hivelabs",
      "script": "./dist/shared/server.js",
      "merge_logs": true,
      "max_restarts": 20,
      "instances": 1,
      "max_memory_restart": "200M",
      "env": {
        "PORT": 3000,
        "NODE_ENV": "production"
      }
    }
  ]
}
