{
  "swagger": "2.0",
  "info": {
    "version": "1.0.0",
    "title": "API hivelabs",
    "description": "Documentation API Swegger"
  },
  "host": "localhost:3000",
  "basePath": "/api/v1",
  "tags": [
    {
      "name": "User",
      "description": "Endpoints"
    }
  ],
  "schemes": ["http", "https"],
  "consumes": ["application/json"],
  "produces": ["application/json"],
  "paths": {
    "/users": {
      "post": {
        "tags": ["User"],
        "description": "Endpoint to add a user.",
        "produces": ["application/xml"],
        "parameters": [
          {
            "name": "obj",
            "in": "body",
            "description": "User information.",
            "required": true,
            "schema": {
              "$ref": "#/definitions/AddUser"
            }
          }
        ],
        "responses": {
          "201": {
            "description": "User created successfully."
          },
          "500": {
            "description": "Internal Server Error"
          }
        }
      },
      "get": {
        "tags": ["User"],
        "summary": "Returns a list of users.",
        "description": "#Get all users",
        "produces": ["application/json"],
        "parameters": [],
        "responses": {
          "201": {
            "description": "200"
          },
          "500": {
            "description": "Internal Server Error"
          }
        }
      }
    },
    "/users/filterNickname/?nickname={nickname}": {
      "get": {
        "tags": ["User"],
        "summary": "Returns user with name, lastname and nickname.",
        "description": "Returns user fiels selected: {name, lastname, nickname}",
        "produces": ["application/json"],
        "parameters": [
          {
            "name": "nickname",
            "in": "path",
            "required": true,
            "type": "string"
          }
        ],
        "responses": {
          "200": {
            "description": "OK"
          },
          "404": {
            "description": "Not Found"
          }
        }
      }
    },
    "/users/filter?name={name}&lastname={lastname}": {
      "get": {
        "tags": ["User"],
        "summary": "Returns user found",
        "description": "Get user by name and/or lastname",
        "produces": ["application/json"],
        "parameters": [
          {
            "name": "name",
            "in": "path",
            "type": "string"
          },
          {
            "name": "lastname",
            "in": "path",
            "type": "string"
          }
        ],
        "responses": {
          "200": {
            "description": "OK"
          },
          "404": {
            "description": "Not Found"
          }
        }
      }
    },
    "/users/updateLastnameAndAddres/{id}": {
      "put": {
        "tags": ["User"],
        "summary": "Update lastname and address of user",
        "description": "Returns user updated",
        "produces": ["application/json"],
        "parameters": [
          {
            "name": "id",
            "in": "path",
            "type": "string"
          },
          {
            "name": "obj",
            "in": "body",
            "description": "Lastname and Addres",
            "required": true,
            "schema": {
              "$ref": "#/definitions/UpdateLastnameAndAddres"
            }
          }
        ],
        "responses": {
          "200": {
            "description": "OK"
          },
          "404": {
            "description": "Not Found"
          }
        }
      }
    },
    "/users/updateNickname/{id}": {
      "put": {
        "tags": ["User"],
        "summary": "Update nickname of user",
        "description": "Return user with updated nickname",
        "produces": ["application/json"],
        "parameters": [
          {
            "name": "id",
            "in": "path",
            "type": "string"
          },
          {
            "name": "obj",
            "in": "body",
            "description": "Nickname",
            "required": true,
            "schema": {
              "$ref": "#/definitions/UpdateNickname"
            }
          }
        ],
        "responses": {
          "200": {
            "description": "OK"
          },
          "404": {
            "description": "Not Found"
          }
        }
      }
    },
    "/users/{id}": {
      "delete": {
        "tags": ["User"],
        "summary": "Return request status",
        "description": "Delete user",
        "produces": ["application/json"],
        "parameters": [
          {
            "name": "id",
            "in": "path",
            "required": true,
            "type": "string"
          }
        ],
        "responses": {
          "201": {
            "description": "200"
          },
          "500": {
            "description": "Internal Server Error"
          }
        }
      }
    }
  },
  "definitions": {
    "AddUser": {
      "type": "object",
      "properties": {
        "name": {
          "type": "string",
          "example": "Rafael"
        },
        "lastname": {
          "type": "string",
          "example": "Batista"
        },
        "nickname": {
          "type": "string",
          "example": "raphab33"
        },
        "address": {
          "type": "string",
          "example": "Rua João Pessoa, 345"
        },
        "bio": {
          "type": "string",
          "example": "Gosto de programar"
        }
      },
      "required": ["name", "lastname", "nickname", "address"],
      "xml": {
        "name": "AddUser"
      }
    },
    "UpdateLastnameAndAddres": {
      "type": "object",
      "properties": {
        "lastname": {
          "type": "string",
          "example": "Batista"
        },
        "address": {
          "type": "string",
          "example": "Rua João Pessoa, 345"
        }
      },
      "xml": {
        "name": "UpdateLastnameAndAddres"
      }
    },
    "UpdateNickname": {
      "type": "object",
      "properties": {
        "nickname": {
          "type": "string",
          "example": "raphab33"
        }
      },
      "xml": {
        "name": "UpdateNickname"
      }
    }
  }
}
